R para Ciencias Sociales y Gestión Pública - 8 Preprocesamiento y validación cruzada
…
mi_receta <- recipe(aml_index ~ rule_of_law, data = training_data) |> 
              step_impute_mean(rule_of_law)

¿Qué es lo que está haciendo esta función? step_impute_mean() imputa los valores faltantes de variables numéricas con la media calculada en el conjunto de entrenamiento. Es decir, con este paso, nos va a permitir utilizar TODOS LOS CASOS, los cual al inicio tenía perdidos. Este es uno de los métodos de imputación más simples.

Ahora bien, antes de seguir, si quieres ver qué hace este step a nuestra data, podemos inspeccionarlo preparando la receta solo con el conjunto de entrenamiento (ahí la receta “aprende” parámetros como las medias) y luego mirar el entrenamiento ya transformado con juice() y el conjunto de prueba horneado con bake().

En la jerga de tidymodels, hornear significa aplicar a datos nuevos (p. ej., el test) exactamente las mismas transformaciones que se estimaron con el train —imputar con las medias del train, escalar con sus desvíos, crear las mismas dummies, etc.— sin recalcular nada y sin modificar tu objeto original; bake() simplemente devuelve un tibble ya transformado, listo para predecir.

Esto aplica tanto en nuestro training data:

training_data |> 
  select(rule_of_law)

# A tibble: 59 × 1
   rule_of_law
         <dbl>
 1      NA    
 2       0.703
 3       0.534
 4       0.834
 5       0.569
 6      NA    
 7       0.630
 8       0.556
 9       0.800
10       0.549
# ℹ 49 more rows

Que ahora se vería así:

mi_receta |> 
     prep() |> # es cuando la receta aprende con el train
     juice()   # devuelve el train ya transformado según lo aprendido en prep

# A tibble: 59 × 2
   rule_of_law aml_index
         <dbl>     <dbl>
 1       0.557      8.14
 2       0.703      4.3 
 3       0.534      4.71
 4       0.834      4.29
 5       0.569      5.85
 6       0.557      4.7 
 7       0.630      4.9 
 8       0.556      5.16
 9       0.800      4.1 
10       0.549      5.29
# ℹ 49 more rows
…
Aplicación con tidymodels

Esto que hemos hecho manualmente, también lo podemos hacer con tidymodels y la función step_normalize(). Piensa en las variables rule_of_law y cpi_index.

mi_receta <- recipe(aml_index ~ rule_of_law + pbi_pc, data = training_data) |> 
              step_impute_mean(rule_of_law) |> 
              step_normalize(pbi_pc)

Vemos nuestro dataset de entrenamiento:

mi_receta |> 
     prep() |> # es cuando la receta aprende con el train
     juice()   # devuelve el train ya transformado según lo aprendido en prep

# A tibble: 59 × 3
   rule_of_law  pbi_pc aml_index
         <dbl>   <dbl>     <dbl>
 1       0.557 -0.746       8.14
 2       0.703  2.95        4.3 
 3       0.534 -0.208       4.71
 4       0.834  2.04        4.29
 5       0.569 -0.411       5.85
 6       0.557 -0.417       4.7 
 7       0.630 -0.0594      4.9 
 8       0.556 -0.231       5.16
 9       0.800  2.26        4.1 
10       0.549 -0.659       5.29
# ℹ 49 more rows
…
Ahora bien, podemos hacer esta transformación de una forma más sencilla utilizando recipes.

mi_receta <- recipe(aml_index ~ rule_of_law + pbi_pc + continente, data = training_data) |> 
              step_impute_mean(rule_of_law) |> 
              step_normalize(pbi_pc, rule_of_law) |> 
              step_dummy(continente)

Ahora vemos cómo se vería nuestra data de entrenamiento.

mi_receta |> 
     prep() |> # es cuando la receta aprende con el train
     juice()

# A tibble: 59 × 7
   rule_of_law  pbi_pc aml_index continente_Americas continente_Asia
         <dbl>   <dbl>     <dbl>               <dbl>           <dbl>
 1     0       -0.746       8.14                   0               0
 2     1.10     2.95        4.3                    1               0
 3    -0.179   -0.208       4.71                   0               1
 4     2.08     2.04        4.29                   0               0
 5     0.0895  -0.411       5.85                   0               0
 6     0       -0.417       4.7                    0               0
 7     0.549   -0.0594      4.9                    0               0
 8    -0.00893 -0.231       5.16                   0               0
 9     1.82     2.26        4.1                    0               0
10    -0.0636  -0.659       5.29                   0               0
# ℹ 49 more rows
# ℹ 2 more variables: continente_Europe <dbl>, continente_Oceania <dbl>
…
